…
```r
submission
```

```
## # A tibble: 50 x 3
##    일자       중식계 석식계
##    <date>      <dbl>  <dbl>
##  1 2021-01-27   1024    389
##  2 2021-01-28    974    401
##  3 2021-01-29    611    255
##  4 2021-02-01   1167    504
##  5 2021-02-02   1000    446
##  6 2021-02-03    968    410
##  7 2021-02-04    932    462
##  8 2021-02-05    615    308
##  9 2021-02-08   1202    616
## 10 2021-02-09   1012    497
## # ... with 40 more rows
```
